module gitlab.com/blankspace9/mis-pr

go 1.22.2

require (
	github.com/BurntSushi/toml v1.2.1 // indirect
	github.com/asaskevich/govalidator v0.0.0-20230301143203-a9d515a09cc2 // indirect
	github.com/golang-jwt/jwt/v5 v5.2.1 // indirect
	github.com/golang-migrate/migrate/v4 v4.17.1 // indirect
	github.com/google/uuid v1.6.0 // indirect
	github.com/hashicorp/errwrap v1.1.0 // indirect
	github.com/hashicorp/go-multierror v1.1.1 // indirect
	github.com/ilyakaznacheev/cleanenv v1.5.0 // indirect
	github.com/joho/godotenv v1.5.1 // indirect
	github.com/lib/pq v1.10.9 // indirect
	gitlab.com/blankspace9/protos v0.3.8 // indirect
	go.uber.org/atomic v1.7.0 // indirect
	golang.org/x/crypto v0.23.0 // indirect
	golang.org/x/net v0.21.0 // indirect
	golang.org/x/sys v0.20.0 // indirect
	golang.org/x/text v0.15.0 // indirect
	google.golang.org/genproto/googleapis/rpc v0.0.0-20240227224415-6ceb2ff114de // indirect
	google.golang.org/grpc v1.63.2 // indirect
	google.golang.org/protobuf v1.33.0 // indirect
	gopkg.in/yaml.v3 v3.0.1 // indirect
	olympos.io/encoding/edn v0.0.0-20201019073823-d3554ca0b0a3 // indirect
)
